Probabilidad e Inferencia Estadística
…
  - .bold[Promedio geomético]: `\(\hat{\mu}_G = \left( X_1 \times X_2 \times \ldots \times X_{100} \right)^{\frac{1}{100}}\)`
    
  - .bold[Observación aleatoria]: `\(\hat{\mu}_S =  X_{i}\)`

---
##Distribución Muestral, ejemplo

.pull-left[

```r
mimuestra %>% as_tibble()
```

```
## # A tibble: 100 × 3
##    year   educ   age
##    <fct> <dbl> <dbl>
##  1 1998     12    35
##  2 2000     16    44
##  3 2008     17    37
##  4 2016     18    47
##  5 1998     13    67
##  6 1989     13    67
##  7 1978     12    37
##  8 1978     12    26
##  9 1996     13    38
## 10 2014     18    43
## # ℹ 90 more rows
```
…
