Probabilidad e Inferencia Estadística
…
  Probabilidad e Inferencia Estadística

  Intervalos de Confianza via Método de Bootstrap

 Mauricio Bucca 
 github.com/mebucca 
 mebucca@uc.cl 

Ejemplo empírico: Promedio de ingreso mujeres

# A tibble: 513 × 6
   region  sexo  edad  educ ingreso  univ
    <int> <int> <int> <int>   <int> <dbl>
 1      2     2     6     1      NA    NA
 2     13     2    28     6      NA     0
 3      4     2    56     3      NA     0
 4      5     2    47     6  180000     0
 5     13     2    69     1  145000     0
 6     10     2     0     0      NA    NA
 7     13     2    59     8  500000     0
 8      4     2    28     8  330000     0
 9      9     2    30    11  652533     1
10      9     2    36     5   95000     0
11     15     2    24     7   60000    NA
12      5     2    43     5    2083     0
13     13     2    17     3      NA    NA
14     14     2    21     9      NA    NA
15     14     2    86    11  450000     1
# ℹ 498 more rows
…
