Probabilidad e Inferencia Estadística
…
Establece la prueba estadística d(.) para la cantidad de interés.

Mezcla aleatoriamente (permuta) las unidades entre los dos grupos, manteniendo fijos los tamaños de los grupos. Obtenemos los datos permutados X_{p}.

Calcula d(.) en la muestra permutada X_{p}.

Repite los pasos 2 y 3 un gran número de veces, P.

La colección de resultados es la distribución de permutación de d.

Aplicación a brechas de género

Datos observados:

# A tibble: 574 × 2
   genero ingreso
   <chr>    <int>
 1 Mujer   180000
 2 Mujer   145000
 3 Hombre  325000
 4 Mujer   500000
 5 Hombre  650000
 6 Mujer   330000
 7 Mujer   652533
 8 Mujer    95000
 9 Hombre  500000
10 Mujer    60000
# ℹ 564 more rows

Diferencia observada:

\hat{\mu}_{H}= 588281

\hat{\mu}_{M}= 368070

(\hat{\mu}_{H} - \hat{\mu}_{M})= 220211

Aplicación a brechas de género

Una permutación posible:

# A tibble: 574 × 3
   genero ingreso ingreso_p
   <chr>    <int>     <int>
 1 Mujer   180000    287520
 2 Mujer   145000   1187334
 3 Hombre  325000     30000
 4 Mujer   500000   1666667
 5 Hombre  650000    120000
 6 Mujer   330000    200000
 7 Mujer   652533    182000
 8 Mujer    95000    320917
 9 Hombre  500000    937833
10 Mujer    60000    450000
# ℹ 564 more rows
…
