Probabilidad e Inferencia Estadística
…
stats

Estimación

Estimación

Una socióloga quiere saber el promedio de años de escolaridad en USA

La socióloga toma una muestra aleatoria de 100 personas \(m: \{X_1, \dots, X_{100} \}\). Los datos se ven así:

# A tibble: 100 × 3
   year   educ   age
   <fct> <dbl> <dbl>
 1 2010     15    39
 2 1996     12    35
 3 2012     17    33
 4 2010     13    30
 5 2000     12    46
 6 1982      9    52
 7 2012     16    23
 8 1994     13    24
 9 1996     20    38
10 1994     12    49
# ℹ 90 more rows
…
estimado

Estimando, Estimador y Estimado

# A tibble: 100 × 3
   year   educ   age
   <fct> <dbl> <dbl>
 1 2010     15    39
 2 1996     12    35
 3 2012     17    33
 4 2010     13    30
 5 2000     12    46
 6 1982      9    52
 7 2012     16    23
 8 1994     13    24
 9 1996     20    38
10 1994     12    49
# ℹ 90 more rows
…
for (i in 1:5000) {
  # tomamos 5000 muestras de tamaño 100
  muestra_i <- sample_n(educ_poblacion, size=100, replace = TRUE)
  
  # en cada muestra calculamos media y guardamos resultado
  resultados$estimado[i] <- mean(muestra_i$educ)
}

Distribución Muestral de la media muestral

La colección de estimados se ve así:

# A tibble: 5,000 × 1
   estimado
      <dbl>
 1    12.98
 2    12.47
 3    12.90
 4    12.97
 5    12.54
 6    12.40
 7    12.11
 8    12.34
 9    13.19
10    12.71
11    12.81
12    12.51
13    12.96
14    13.41
15    12.50
# ℹ 4,985 more rows

La estimación de la media muestral es aleatorias porque las muestras son aleatorias

¿Cómo se distribuyen estas estimaciones?

 - El Teoréma del Límite Central nos dice que:

\[\bar{X}_{n} \sim \text{Normal}\bigg(\mu, \frac{\sigma}{\sqrt{n}}\bigg)\]

Distribución Muestral

La colección de estimados se ve así:

# A tibble: 5,000 × 1
   estimado
      <dbl>
 1    12.98
 2    12.47
 3    12.90
 4    12.97
 5    12.54
 6    12.40
 7    12.11
 8    12.34
 9    13.19
10    12.71
11    12.81
12    12.51
13    12.96
14    13.41
15    12.50
# ℹ 4,985 more rows
…
