Probabilidad e Inferencia Estadística
…
4. Repite los pasos 2 y 3 un gran número de veces, P.

--

5. La colección de resultados es la distribución de permutación de `\(d\)`.

---
#Aplicación a brechas de género

.bold[Datos observados:]

.pull-left[

```
## # A tibble: 574 × 2
##    genero ingreso
##    <chr>    <int>
##  1 Mujer   180000
##  2 Mujer   145000
##  3 Hombre  325000
##  4 Mujer   500000
##  5 Hombre  650000
##  6 Mujer   330000
##  7 Mujer   652533
##  8 Mujer    95000
##  9 Hombre  500000
## 10 Mujer    60000
## # ℹ 564 more rows
```
…
- `\(\hat{\mu}_{M}=\)` 368070

- `\((\hat{\mu}_{H} - \hat{\mu}_{M})=\)` 220211
]

---
#Aplicación a brechas de género

.bold[Una permutación posible:]

.pull-left[

```
## # A tibble: 574 × 3
##    genero ingreso ingreso_p
##    <chr>    <int>     <int>
##  1 Mujer   180000    454167
##  2 Mujer   145000    200000
##  3 Hombre  325000    200000
##  4 Mujer   500000    910000
##  5 Hombre  650000    200000
##  6 Mujer   330000    319708
##  7 Mujer   652533    320000
##  8 Mujer    95000    230000
##  9 Hombre  500000    363667
## 10 Mujer    60000    175000
## # ℹ 564 more rows
```
…
